{"frames": [

{
	"filename": "auto.png",
	"frame": {"x":1,"y":1,"w":240,"h":240},
	"rotated": false,
	"trimmed": false,
	"spriteSourceSize": {"x":0,"y":0,"w":240,"h":240},
	"sourceSize": {"w":240,"h":240}
},
{
	"filename": "avion.png",
	"frame": {"x":1,"y":243,"w":240,"h":240},
	"rotated": false,
	"trimmed": false,
	"spriteSourceSize": {"x":0,"y":0,"w":240,"h":240},
	"sourceSize": {"w":240,"h":240}
},
{
	"filename": "balon.png",
	"frame": {"x":1,"y":485,"w":240,"h":240},
	"rotated": false,
	"trimmed": false,
	"spriteSourceSize": {"x":0,"y":0,"w":240,"h":240},
	"sourceSize": {"w":240,"h":240}
},
{
	"filename": "bubamara.png",
	"frame": {"x":1,"y":727,"w":240,"h":240},
	"rotated": false,
	"trimmed": false,
	"spriteSourceSize": {"x":0,"y":0,"w":240,"h":240},
	"sourceSize": {"w":240,"h":240}
},
{
	"filename": "camac.png",
	"frame": {"x":1,"y":969,"w":240,"h":240},
	"rotated": false,
	"trimmed": false,
	"spriteSourceSize": {"x":0,"y":0,"w":240,"h":240},
	"sourceSize": {"w":240,"h":240}
},
{
	"filename": "cigra.png",
	"frame": {"x":1,"y":1211,"w":240,"h":240},
	"rotated": false,
	"trimmed": false,
	"spriteSourceSize": {"x":0,"y":0,"w":240,"h":240},
	"sourceSize": {"w":240,"h":240}
},
{
	"filename": "cilim.png",
	"frame": {"x":1,"y":1453,"w":240,"h":240},
	"rotated": false,
	"trimmed": false,
	"spriteSourceSize": {"x":0,"y":0,"w":240,"h":240},
	"sourceSize": {"w":240,"h":240}
},
{
	"filename": "cipela.png",
	"frame": {"x":1,"y":1695,"w":240,"h":240},
	"rotated": false,
	"trimmed": false,
	"spriteSourceSize": {"x":0,"y":0,"w":240,"h":240},
	"sourceSize": {"w":240,"h":240}
},
{
	"filename": "cucla.png",
	"frame": {"x":243,"y":1,"w":240,"h":240},
	"rotated": false,
	"trimmed": false,
	"spriteSourceSize": {"x":0,"y":0,"w":240,"h":240},
	"sourceSize": {"w":240,"h":240}
},
{
	"filename": "cufte.png",
	"frame": {"x":485,"y":1,"w":240,"h":240},
	"rotated": false,
	"trimmed": false,
	"spriteSourceSize": {"x":0,"y":0,"w":240,"h":240},
	"sourceSize": {"w":240,"h":240}
},
{
	"filename": "djak.png",
	"frame": {"x":727,"y":1,"w":240,"h":240},
	"rotated": false,
	"trimmed": false,
	"spriteSourceSize": {"x":0,"y":0,"w":240,"h":240},
	"sourceSize": {"w":240,"h":240}
},
{
	"filename": "djubre.png",
	"frame": {"x":969,"y":1,"w":240,"h":240},
	"rotated": false,
	"trimmed": false,
	"spriteSourceSize": {"x":0,"y":0,"w":240,"h":240},
	"sourceSize": {"w":240,"h":240}
},
{
	"filename": "drvo.png",
	"frame": {"x":1211,"y":1,"w":240,"h":240},
	"rotated": false,
	"trimmed": false,
	"spriteSourceSize": {"x":0,"y":0,"w":240,"h":240},
	"sourceSize": {"w":240,"h":240}
},
{
	"filename": "dugme.png",
	"frame": {"x":1453,"y":1,"w":240,"h":240},
	"rotated": false,
	"trimmed": false,
	"spriteSourceSize": {"x":0,"y":0,"w":240,"h":240},
	"sourceSize": {"w":240,"h":240}
},
{
	"filename": "dzak.png",
	"frame": {"x":1695,"y":1,"w":240,"h":240},
	"rotated": false,
	"trimmed": false,
	"spriteSourceSize": {"x":0,"y":0,"w":240,"h":240},
	"sourceSize": {"w":240,"h":240}
},
{
	"filename": "dzem.png",
	"frame": {"x":243,"y":243,"w":240,"h":240},
	"rotated": false,
	"trimmed": false,
	"spriteSourceSize": {"x":0,"y":0,"w":240,"h":240},
	"sourceSize": {"w":240,"h":240}
},
{
	"filename": "ekran.png",
	"frame": {"x":243,"y":485,"w":240,"h":240},
	"rotated": false,
	"trimmed": false,
	"spriteSourceSize": {"x":0,"y":0,"w":240,"h":240},
	"sourceSize": {"w":240,"h":240}
},
{
	"filename": "ekser.png",
	"frame": {"x":243,"y":727,"w":240,"h":240},
	"rotated": false,
	"trimmed": false,
	"spriteSourceSize": {"x":0,"y":0,"w":240,"h":240},
	"sourceSize": {"w":240,"h":240}
},
{
	"filename": "fioka.png",
	"frame": {"x":243,"y":969,"w":240,"h":240},
	"rotated": false,
	"trimmed": false,
	"spriteSourceSize": {"x":0,"y":0,"w":240,"h":240},
	"sourceSize": {"w":240,"h":240}
},
{
	"filename": "flauta.png",
	"frame": {"x":243,"y":1211,"w":240,"h":240},
	"rotated": false,
	"trimmed": false,
	"spriteSourceSize": {"x":0,"y":0,"w":240,"h":240},
	"sourceSize": {"w":240,"h":240}
},
{
	"filename": "golub.png",
	"frame": {"x":243,"y":1453,"w":240,"h":240},
	"rotated": false,
	"trimmed": false,
	"spriteSourceSize": {"x":0,"y":0,"w":240,"h":240},
	"sourceSize": {"w":240,"h":240}
},
{
	"filename": "guma.png",
	"frame": {"x":243,"y":1695,"w":240,"h":240},
	"rotated": false,
	"trimmed": false,
	"spriteSourceSize": {"x":0,"y":0,"w":240,"h":240},
	"sourceSize": {"w":240,"h":240}
},
{
	"filename": "hleb.png",
	"frame": {"x":485,"y":243,"w":240,"h":240},
	"rotated": false,
	"trimmed": false,
	"spriteSourceSize": {"x":0,"y":0,"w":240,"h":240},
	"sourceSize": {"w":240,"h":240}
},
{
	"filename": "hrana.png",
	"frame": {"x":727,"y":243,"w":240,"h":240},
	"rotated": false,
	"trimmed": false,
	"spriteSourceSize": {"x":0,"y":0,"w":240,"h":240},
	"sourceSize": {"w":240,"h":240}
},
{
	"filename": "igla.png",
	"frame": {"x":969,"y":243,"w":240,"h":240},
	"rotated": false,
	"trimmed": false,
	"spriteSourceSize": {"x":0,"y":0,"w":240,"h":240},
	"sourceSize": {"w":240,"h":240}
},
{
	"filename": "iglo.png",
	"frame": {"x":1211,"y":243,"w":240,"h":240},
	"rotated": false,
	"trimmed": false,
	"spriteSourceSize": {"x":0,"y":0,"w":240,"h":240},
	"sourceSize": {"w":240,"h":240}
},
{
	"filename": "jabuka.png",
	"frame": {"x":1453,"y":243,"w":240,"h":240},
	"rotated": false,
	"trimmed": false,
	"spriteSourceSize": {"x":0,"y":0,"w":240,"h":240},
	"sourceSize": {"w":240,"h":240}
},
{
	"filename": "jagoda.png",
	"frame": {"x":1695,"y":243,"w":240,"h":240},
	"rotated": false,
	"trimmed": false,
	"spriteSourceSize": {"x":0,"y":0,"w":240,"h":240},
	"sourceSize": {"w":240,"h":240}
},
{
	"filename": "kifla.png",
	"frame": {"x":485,"y":485,"w":240,"h":240},
	"rotated": false,
	"trimmed": false,
	"spriteSourceSize": {"x":0,"y":0,"w":240,"h":240},
	"sourceSize": {"w":240,"h":240}
},
{
	"filename": "kukuruz.png",
	"frame": {"x":485,"y":727,"w":240,"h":240},
	"rotated": false,
	"trimmed": false,
	"spriteSourceSize": {"x":0,"y":0,"w":240,"h":240},
	"sourceSize": {"w":240,"h":240}
},
{
	"filename": "leptir.png",
	"frame": {"x":485,"y":969,"w":240,"h":240},
	"rotated": false,
	"trimmed": false,
	"spriteSourceSize": {"x":0,"y":0,"w":240,"h":240},
	"sourceSize": {"w":240,"h":240}
},
{
	"filename": "lizalica.png",
	"frame": {"x":485,"y":1211,"w":240,"h":240},
	"rotated": false,
	"trimmed": false,
	"spriteSourceSize": {"x":0,"y":0,"w":240,"h":240},
	"sourceSize": {"w":240,"h":240}
},
{
	"filename": "ljubav.png",
	"frame": {"x":485,"y":1453,"w":240,"h":240},
	"rotated": false,
	"trimmed": false,
	"spriteSourceSize": {"x":0,"y":0,"w":240,"h":240},
	"sourceSize": {"w":240,"h":240}
},
{
	"filename": "ljuljaska.png",
	"frame": {"x":485,"y":1695,"w":240,"h":240},
	"rotated": false,
	"trimmed": false,
	"spriteSourceSize": {"x":0,"y":0,"w":240,"h":240},
	"sourceSize": {"w":240,"h":240}
},
{
	"filename": "macka.png",
	"frame": {"x":727,"y":485,"w":240,"h":240},
	"rotated": false,
	"trimmed": false,
	"spriteSourceSize": {"x":0,"y":0,"w":240,"h":240},
	"sourceSize": {"w":240,"h":240}
},
{
	"filename": "mis.png",
	"frame": {"x":969,"y":485,"w":240,"h":240},
	"rotated": false,
	"trimmed": false,
	"spriteSourceSize": {"x":0,"y":0,"w":240,"h":240},
	"sourceSize": {"w":240,"h":240}
},
{
	"filename": "naocare.png",
	"frame": {"x":1211,"y":485,"w":240,"h":240},
	"rotated": false,
	"trimmed": false,
	"spriteSourceSize": {"x":0,"y":0,"w":240,"h":240},
	"sourceSize": {"w":240,"h":240}
},
{
	"filename": "njiva.png",
	"frame": {"x":1453,"y":485,"w":240,"h":240},
	"rotated": false,
	"trimmed": false,
	"spriteSourceSize": {"x":0,"y":0,"w":240,"h":240},
	"sourceSize": {"w":240,"h":240}
},
{
	"filename": "njuska.png",
	"frame": {"x":1695,"y":485,"w":240,"h":240},
	"rotated": false,
	"trimmed": false,
	"spriteSourceSize": {"x":0,"y":0,"w":240,"h":240},
	"sourceSize": {"w":240,"h":240}
},
{
	"filename": "novcanik.png",
	"frame": {"x":727,"y":727,"w":240,"h":240},
	"rotated": false,
	"trimmed": false,
	"spriteSourceSize": {"x":0,"y":0,"w":240,"h":240},
	"sourceSize": {"w":240,"h":240}
},
{
	"filename": "oko.png",
	"frame": {"x":727,"y":969,"w":240,"h":240},
	"rotated": false,
	"trimmed": false,
	"spriteSourceSize": {"x":0,"y":0,"w":240,"h":240},
	"sourceSize": {"w":240,"h":240}
},
{
	"filename": "ostrvo.png",
	"frame": {"x":727,"y":1211,"w":240,"h":240},
	"rotated": false,
	"trimmed": false,
	"spriteSourceSize": {"x":0,"y":0,"w":240,"h":240},
	"sourceSize": {"w":240,"h":240}
},
{
	"filename": "palacinke.png",
	"frame": {"x":727,"y":1453,"w":240,"h":240},
	"rotated": false,
	"trimmed": false,
	"spriteSourceSize": {"x":0,"y":0,"w":240,"h":240},
	"sourceSize": {"w":240,"h":240}
},
{
	"filename": "prsten.png",
	"frame": {"x":727,"y":1695,"w":240,"h":240},
	"rotated": false,
	"trimmed": false,
	"spriteSourceSize": {"x":0,"y":0,"w":240,"h":240},
	"sourceSize": {"w":240,"h":240}
},
{
	"filename": "ranac.png",
	"frame": {"x":969,"y":727,"w":240,"h":240},
	"rotated": false,
	"trimmed": false,
	"spriteSourceSize": {"x":0,"y":0,"w":240,"h":240},
	"sourceSize": {"w":240,"h":240}
},
{
	"filename": "rep.png",
	"frame": {"x":1211,"y":727,"w":240,"h":240},
	"rotated": false,
	"trimmed": false,
	"spriteSourceSize": {"x":0,"y":0,"w":240,"h":240},
	"sourceSize": {"w":240,"h":240}
},
{
	"filename": "sisarka.png",
	"frame": {"x":1453,"y":727,"w":240,"h":240},
	"rotated": false,
	"trimmed": false,
	"spriteSourceSize": {"x":0,"y":0,"w":240,"h":240},
	"sourceSize": {"w":240,"h":240}
},
{
	"filename": "sladoled.png",
	"frame": {"x":1695,"y":727,"w":240,"h":240},
	"rotated": false,
	"trimmed": false,
	"spriteSourceSize": {"x":0,"y":0,"w":240,"h":240},
	"sourceSize": {"w":240,"h":240}
},
{
	"filename": "suma.png",
	"frame": {"x":969,"y":969,"w":240,"h":240},
	"rotated": false,
	"trimmed": false,
	"spriteSourceSize": {"x":0,"y":0,"w":240,"h":240},
	"sourceSize": {"w":240,"h":240}
},
{
	"filename": "sunce.png",
	"frame": {"x":969,"y":1211,"w":240,"h":240},
	"rotated": false,
	"trimmed": false,
	"spriteSourceSize": {"x":0,"y":0,"w":240,"h":240},
	"sourceSize": {"w":240,"h":240}
},
{
	"filename": "tasna.png",
	"frame": {"x":969,"y":1453,"w":240,"h":240},
	"rotated": false,
	"trimmed": false,
	"spriteSourceSize": {"x":0,"y":0,"w":240,"h":240},
	"sourceSize": {"w":240,"h":240}
},
{
	"filename": "truba.png",
	"frame": {"x":969,"y":1695,"w":240,"h":240},
	"rotated": false,
	"trimmed": false,
	"spriteSourceSize": {"x":0,"y":0,"w":240,"h":240},
	"sourceSize": {"w":240,"h":240}
},
{
	"filename": "ukras.png",
	"frame": {"x":1211,"y":969,"w":240,"h":240},
	"rotated": false,
	"trimmed": false,
	"spriteSourceSize": {"x":0,"y":0,"w":240,"h":240},
	"sourceSize": {"w":240,"h":240}
},
{
	"filename": "uvo.png",
	"frame": {"x":1453,"y":969,"w":240,"h":240},
	"rotated": false,
	"trimmed": false,
	"spriteSourceSize": {"x":0,"y":0,"w":240,"h":240},
	"sourceSize": {"w":240,"h":240}
},
{
	"filename": "vatra.png",
	"frame": {"x":1695,"y":969,"w":240,"h":240},
	"rotated": false,
	"trimmed": false,
	"spriteSourceSize": {"x":0,"y":0,"w":240,"h":240},
	"sourceSize": {"w":240,"h":240}
},
{
	"filename": "vulkan.png",
	"frame": {"x":1211,"y":1211,"w":240,"h":240},
	"rotated": false,
	"trimmed": false,
	"spriteSourceSize": {"x":0,"y":0,"w":240,"h":240},
	"sourceSize": {"w":240,"h":240}
},
{
	"filename": "zaba.png",
	"frame": {"x":1211,"y":1453,"w":240,"h":240},
	"rotated": false,
	"trimmed": false,
	"spriteSourceSize": {"x":0,"y":0,"w":240,"h":240},
	"sourceSize": {"w":240,"h":240}
},
{
	"filename": "zbun.png",
	"frame": {"x":1211,"y":1695,"w":240,"h":240},
	"rotated": false,
	"trimmed": false,
	"spriteSourceSize": {"x":0,"y":0,"w":240,"h":240},
	"sourceSize": {"w":240,"h":240}
},
{
	"filename": "zmaj.png",
	"frame": {"x":1453,"y":1211,"w":240,"h":240},
	"rotated": false,
	"trimmed": false,
	"spriteSourceSize": {"x":0,"y":0,"w":240,"h":240},
	"sourceSize": {"w":240,"h":240}
},
{
	"filename": "zub.png",
	"frame": {"x":1695,"y":1211,"w":240,"h":240},
	"rotated": false,
	"trimmed": false,
	"spriteSourceSize": {"x":0,"y":0,"w":240,"h":240},
	"sourceSize": {"w":240,"h":240}
}],
"meta": {
	"app": "https://www.codeandweb.com/texturepacker",
	"version": "1.0",
	"image": "images.png",
	"format": "RGBA8888",
	"size": {"w":2048,"h":2048},
	"scale": "1",
	"smartupdate": "$TexturePacker:SmartUpdate:cea801f950477780c57863867fd1e5cf:150caf895f3505041a3d9e8f2c530826:9be8c185d95a5be4a06ec0067a3d8380$"
}
}
